Chapter 5 Representation | JOUR7088-Social Opinion Anlysis
…
## [1] TRUE

5.2 Doc-Term-Pair (unnested)

unnested.df <- corpus.df %>%
    mutate(word = purrr::map(text, function(x)segment(x, cutter))) %>%
    unnest(word)
unnested.df

## # A tibble: 38 × 3
##    text               doc_id word 
##    <chr>              <chr>  <chr>
##  1 我家狗兒最愛睡覺   doc1   我家 
##  2 我家狗兒最愛睡覺   doc1   狗兒 
##  3 我家狗兒最愛睡覺   doc1   最愛 
##  4 我家狗兒最愛睡覺   doc1   睡覺 
##  5 我家貓兒最愛睡覺   doc2   我家 
##  6 我家貓兒最愛睡覺   doc2   貓兒 
##  7 我家貓兒最愛睡覺   doc2   最愛 
##  8 我家貓兒最愛睡覺   doc2   睡覺 
##  9 所有貓兒天生就會跑 doc3   所有 
## 10 所有貓兒天生就會跑 doc3   貓兒 
## # … with 28 more rows

5.3 Doc-Term-Count (Term-Doc)

dtcount <- unnested.df %>%
    count(doc_id, word, sort = T)
dtcount

## # A tibble: 38 × 3
##    doc_id word      n
##    <chr>  <chr> <int>
##  1 doc1   狗兒      1
##  2 doc1   睡覺      1
##  3 doc1   我家      1
##  4 doc1   最愛      1
##  5 doc2   貓兒      1
##  6 doc2   睡覺      1
##  7 doc2   我家      1
##  8 doc2   最愛      1
##  9 doc3   就會      1
## 10 doc3   貓兒      1
## # … with 28 more rows

5.4 Doc-Doc-Count

ddcount <- unnested.df %>%
    widyr::pairwise_count(doc_id, word)
ddcount

## # A tibble: 36 × 3
##    item1 item2     n
##    <chr> <chr> <dbl>
##  1 doc2  doc1      3
##  2 doc4  doc1      1
##  3 doc6  doc1      2
##  4 doc7  doc1      1
##  5 doc8  doc1      1
##  6 doc1  doc2      3
##  7 doc3  doc2      1
##  8 doc6  doc2      1
##  9 doc7  doc2      2
## 10 doc8  doc2      1
## # … with 26 more rows

5.5 Term-Term-Count

5.5.1 Term-Term-Count-by-Collocation

library(widyr)
ttcount_collocate <- unnested.df %>%
    widyr::pairwise_count(word, doc_id)
ttcount_collocate

## # A tibble: 104 × 3
##    item1 item2     n
##    <chr> <chr> <dbl>
##  1 狗兒  我家      2
##  2 最愛  我家      2
##  3 睡覺  我家      2
##  4 貓兒  我家      2
##  5 鳥兒  我家      1
##  6 老是  我家      3
##  7 汪汪  我家      1
##  8 叫    我家      3
##  9 喵喵  我家      1
## 10 啾啾  我家      1
## # … with 94 more rows

5.5.2 Term-Term-Count-by-bigram

ttcount_bigram <- unnested.df %>%
  group_by(doc_id) %>%
  mutate(w2 = lead(word, 1)) %>%
  drop_na(w2) %>%
  ungroup() %>%
  rename(w1 = word) %>%
    bind_rows(data.frame(w1 = .$w2, w2 = .$w1)) %>%
  count(w1, w2)

ttcount_bigram

## # A tibble: 48 × 3
##    w1    w2        n
##    <chr> <chr> <int>
##  1 飛    就會      1
##  2 狗兒  老是      1
##  3 狗兒  所有      1
##  4 狗兒  天生      1
##  5 狗兒  我家      2
##  6 狗兒  最愛      1
##  7 叫    啾啾      1
##  8 叫    喵喵      1
##  9 叫    汪汪      1
## 10 啾啾  叫        1
## # … with 38 more rows
…
