Chapter 9 STM | JOUR7088-Social Opinion Anlysis
…
td_gamma <- tidy(topic_model, matrix = "gamma", document_names = rownames(dfm))
td_gamma

## # A tibble: 35,100 × 3
##    document           topic   gamma
##    <chr>              <int>   <dbl>
##  1 M.1476742346.A.F57     1 0.00281
##  2 M.1563679368.A.C2B     1 0.0564 
##  3 M.1600923114.A.8F4     1 0.00666
##  4 M.1488086113.A.85C     1 0.00301
##  5 M.1533754307.A.070     1 0.0127 
##  6 M.1549687071.A.D3A     1 0.116  
##  7 M.1500566217.A.CE9     1 0.00351
##  8 M.1554769984.A.A64     1 0.00542
##  9 M.1593828875.A.DB9     1 0.0616 
## 10 M.1554558794.A.4AA     1 0.00811
## # … with 35,090 more rows
…
